First Simulations on New Algorithm
…
results %>% 
  select(direct_G_residual, auxiliary_G_residual) %>% 
  pivot_longer(cols=c(direct_G_residual, auxiliary_G_residual), names_to="Method", values_to="Residual") %>% 
  mutate(Method = str_sub(Method, 1, 3)) 

## # A tibble: 200 x 2
##    Method Residual
##    <chr>     <dbl>
##  1 dir        19.6
##  2 aux        21.2
##  3 dir        21.1
##  4 aux        20.7
##  5 dir        23.4
##  6 aux        24.8
##  7 dir        21.2
##  8 aux        22.9
##  9 dir        16.5
## 10 aux        18.9
## #  with 190 more rows
…
