Simulation Round 1
…
Varying Sample Size

Number of genes = 20; ratio of marker genes = 0.5 ### Read in data

load("sim_round_4.RData")
res <- as_tibble(res) 

## Warning: The `x` argument of `as_tibble.matrix()` must have unique column names if `.name_repair` is omitted as of tibble 2.0.0.
## Using compatibility `.name_repair`.

colnames(res) <- c("n", "m", "p", "alpha", "xi", "beta", "run", "cor", "mse")
res

## # A tibble: 37,500 x 9
##        n     m     p alpha     xi  beta   run   cor     mse
##    <dbl> <dbl> <dbl> <dbl>  <dbl> <dbl> <dbl> <dbl>   <dbl>
##  1   100    20     5     8 0.0625  1024     1 0.603 0.00835
##  2   100    20     5     8 0.0625  1024     2 0.516 0.0115 
##  3   100    20     5     8 0.0625  1024     3 0.598 0.00804
##  4   100    20     5     8 0.0625  1024     4 0.401 0.0125 
##  5   100    20     5     8 0.0625  1024     5 0.575 0.00943
##  6   100    20     5     8 0.0625  1024     6 0.613 0.00868
##  7   100    20     5     8 0.0625  1024     7 0.413 0.0143 
##  8   100    20     5     8 0.0625  1024     8 0.585 0.00952
##  9   100    20     5     8 0.0625  1024     9 0.625 0.00786
## 10   100    20     5     8 0.0625  1024    10 0.790 0.00483
## #  with 37,490 more rows
…
best_res <- res %>% 
  group_by(n, m, p, run) %>% 
  arrange(desc(cor)) %>% 
  filter(row_number() == 1) %>% 
  ungroup() 

best_res

## # A tibble: 250 x 9
##        n     m     p alpha      xi  beta   run   cor        mse
##    <dbl> <dbl> <dbl> <dbl>   <dbl> <dbl> <dbl> <dbl>      <dbl>
##  1    50    20     5     8 0.00391    16     3 1.00  0.00000445
##  2    20    20     5     8 0.00391    64     3 1.00  0.00000969
##  3    20    20     5   128 0.00391  1024    13 0.999 0.0000622 
##  4   500    20     5   128 0.00391     4    26 0.999 0.0000394 
##  5   100    20     5     8 0.00391    16    38 0.999 0.0000351 
##  6   500    20     5    32 0.00391     4    23 0.999 0.0000343 
##  7    50    20     5     8 0.0625      4     5 0.999 0.0000383 
##  8    50    20     5     8 0.0625     16    28 0.999 0.0000295 
##  9    20    20     5    32 0.00391    64    29 0.999 0.0000478 
## 10   100    20     5     8 0.00391    64     9 0.998 0.0000531 
## #  with 240 more rows
…
best_res <- res %>% 
  group_by(n, m, p, run) %>% 
  arrange(mse) %>% 
  filter(row_number() == 1) %>% 
  ungroup() 

best_res

## # A tibble: 250 x 9
##        n     m     p alpha      xi  beta   run   cor        mse
##    <dbl> <dbl> <dbl> <dbl>   <dbl> <dbl> <dbl> <dbl>      <dbl>
##  1    50    20     5   128 0.00391     4     3 1.00  0.00000404
##  2    20    20     5     8 0.00391    64     3 1.00  0.00000969
##  3    50    20     5     8 0.0625     16    28 0.999 0.0000295 
##  4   500    20     5    32 0.00391     4    23 0.999 0.0000343 
##  5   100    20     5     8 0.00391    16    38 0.999 0.0000351 
##  6    50    20     5     8 0.0625      4     5 0.999 0.0000383 
##  7   500    20     5   128 0.00391     4    26 0.999 0.0000394 
##  8    50    20     5     8 0.0625     16    16 0.998 0.0000439 
##  9    20    20     5    32 0.00391    64    29 0.999 0.0000478 
## 10    20    20     5   128 0.00391   256    16 0.998 0.0000496 
## #  with 240 more rows
…
Varying Number of Genes

Sample size = 20; ratio of marker genes = 0.5 ### Read in data

load("sim_round_5.RData")
res <- as_tibble(res) 
colnames(res) <- c("n", "m", "p", "alpha", "xi", "beta", "run", "cor", "mse")
res

## # A tibble: 37,450 x 9
##        n     m     p alpha     xi  beta   run   cor     mse
##    <dbl> <dbl> <dbl> <dbl>  <dbl> <dbl> <dbl> <dbl>   <dbl>
##  1    20   100     5     8 0.0625  1024     1 0.955 0.00130
##  2    20   100     5     8 0.0625  1024     2 0.888 0.00226
##  3    20   100     5     8 0.0625  1024     3 0.904 0.00397
##  4    20   100     5     8 0.0625  1024     4 0.950 0.00476
##  5    20   100     5     8 0.0625  1024     5 0.933 0.00384
##  6    20   100     5     8 0.0625  1024     6 0.969 0.00205
##  7    20   100     5     8 0.0625  1024     7 0.923 0.00282
##  8    20   100     5     8 0.0625  1024     8 0.950 0.00132
##  9    20   100     5     8 0.0625  1024     9 0.944 0.00126
## 10    20   100     5     8 0.0625  1024    10 0.877 0.0111 
## #  with 37,440 more rows
…
best_res <- res %>% 
  group_by(n, m, p, run) %>% 
  arrange(desc(cor)) %>% 
  filter(row_number() == 1) %>% 
  ungroup() 

best_res

## # A tibble: 250 x 9
##        n     m     p alpha      xi  beta   run   cor        mse
##    <dbl> <dbl> <dbl> <dbl>   <dbl> <dbl> <dbl> <dbl>      <dbl>
##  1    20    20     5     8 0.00391    64     3 1.00  0.00000969
##  2    20    50     5   128 0.00391  4096    49 0.999 0.0000434 
##  3    20    20     5   128 0.00391  1024    13 0.999 0.0000622 
##  4    20    20     5    32 0.00391    64    29 0.999 0.0000478 
##  5    20   100     5   128 0.00391  4096    38 0.998 0.000232  
##  6    20    50     5     8 0.0625   1024    28 0.998 0.0000536 
##  7    20    50     5   128 0.00391  4096    42 0.998 0.0000806 
##  8    20    20     5   128 0.00391   256    16 0.998 0.0000496 
##  9    20    20     5   128 0.00391   256     2 0.997 0.000183  
## 10    20    50     5   128 0.00391  4096    12 0.997 0.000159  
## #  with 240 more rows
…
best_res <- res %>% 
  group_by(n, m, p, run) %>% 
  arrange(mse) %>% 
  filter(row_number() == 1) %>% 
  ungroup() 

best_res

## # A tibble: 250 x 9
##        n     m     p alpha      xi  beta   run   cor        mse
##    <dbl> <dbl> <dbl> <dbl>   <dbl> <dbl> <dbl> <dbl>      <dbl>
##  1    20    20     5     8 0.00391    64     3 1.00  0.00000969
##  2    20    50     5   128 0.00391  4096    49 0.999 0.0000434 
##  3    20    20     5    32 0.00391    64    29 0.999 0.0000478 
##  4    20    20     5   128 0.00391   256    16 0.998 0.0000496 
##  5    20    50     5     8 0.0625   1024    28 0.998 0.0000536 
##  6    20    20     5     8 0.00391  1024    13 0.999 0.0000622 
##  7    20    50     5   128 0.00391  4096    42 0.998 0.0000806 
##  8    20    20     5     8 0.0312    256    50 0.995 0.000106  
##  9    20    50     5     8 0.0625   4096    14 0.997 0.000107  
## 10    20    20     5     8 0.0312   1024    48 0.994 0.000107  
## #  with 240 more rows
…
Varying Ratio of Marker Genes

Number of samples = number of genes = 50 ### Read in data

load("sim_round_6.RData")
res <- as_tibble(res) 
colnames(res) <- c("n", "m", "p", "alpha", "xi", "beta", "run", "cor", "mse")
res

## # A tibble: 31,950 x 9
##        n     m     p alpha     xi  beta   run   cor      mse
##    <dbl> <dbl> <dbl> <dbl>  <dbl> <dbl> <dbl> <dbl>    <dbl>
##  1    50    50     5     8 0.0625  1024     1 0.919 0.00124 
##  2    50    50     5     8 0.0625  1024     2 0.639 0.00833 
##  3    50    50     5     8 0.0625  1024     3 0.966 0.000727
##  4    50    50     5     8 0.0625  1024     4 0.972 0.000638
##  5    50    50     5     8 0.0625  1024     5 0.869 0.00312 
##  6    50    50     5     8 0.0625  1024     6 0.946 0.00143 
##  7    50    50     5     8 0.0625  1024     7 0.943 0.00122 
##  8    50    50     5     8 0.0625  1024     8 0.818 0.00424 
##  9    50    50     5     8 0.0625  1024     9 0.778 0.00429 
## 10    50    50     5     8 0.0625  1024    10 0.902 0.00216 
## #  with 31,940 more rows
…
best_res <- res %>% 
  group_by(n, m, p, run) %>% 
  arrange(desc(cor)) %>% 
  filter(row_number() == 1) %>% 
  ungroup() 

best_res

## # A tibble: 50 x 9
##        n     m     p alpha      xi  beta   run   cor       mse
##    <dbl> <dbl> <dbl> <dbl>   <dbl> <dbl> <dbl> <dbl>     <dbl>
##  1    50    50     5    32 0.00391  1024    41 0.999 0.000102 
##  2    50    50     5     8 0.00391   256    10 0.998 0.0000609
##  3    50    50     5   128 0.00391  1024    39 0.998 0.0000916
##  4    50    50     5   128 0.00391  1024    48 0.998 0.0000821
##  5    50    50     5   128 0.00391  4096    25 0.998 0.0000737
##  6    50    50     5   128 0.00391  4096    15 0.998 0.0000879
##  7    50    50     5   128 0.00391  1024    26 0.998 0.0000554
##  8    50    50     5   128 0.00391  4096    29 0.998 0.0000675
##  9    50    50     5   128 0.00391  4096    20 0.998 0.000108 
## 10    50    50     5     8 0.00391  4096     9 0.998 0.0000880
## #  with 40 more rows
…
best_res <- res %>% 
  group_by(n, m, p, run) %>% 
  arrange(mse) %>% 
  filter(row_number() == 1) %>% 
  ungroup() 

best_res

## # A tibble: 50 x 9
##        n     m     p alpha      xi  beta   run   cor       mse
##    <dbl> <dbl> <dbl> <dbl>   <dbl> <dbl> <dbl> <dbl>     <dbl>
##  1    50    50     5   128 0.00391  1024    26 0.998 0.0000554
##  2    50    50     5     8 0.0625    256     4 0.997 0.0000580
##  3    50    50     5   128 0.00391   256    10 0.998 0.0000607
##  4    50    50     5     8 0.0625   1024    33 0.997 0.0000624
##  5    50    50     5   128 0.00391  4096    29 0.998 0.0000675
##  6    50    50     5   128 0.00391  4096    25 0.998 0.0000737
##  7    50    50     5   128 0.00391  4096    31 0.997 0.0000782
##  8    50    50     5   128 0.00391  1024    48 0.998 0.0000821
##  9    50    50     5   128 0.00391  4096    17 0.997 0.0000851
## 10    50    50     5   128 0.00391  4096    15 0.998 0.0000879
## #  with 40 more rows
…
